INDEX VERSION 1.130+/Users/macstudent/Desktop/junit/.metadata/.plugins/org.eclipse.jdt.core
1062455240.index
1329614307.index
1963614020.index
4098044233.index
1331281704.index
2421475278.index
4185279829.index
3785393958.index
3559401285.index
988123527.index
589877188.index
1611556270.index
3913924371.index
1145268690.index
1716388916.index
398954239.index
1271342938.index
2513065182.index
469599693.index
